{
	"$schema": "http://json-schema.org/draft-07/schema#",
	"title": "LTL Requirement Schema",
	
	"definitions": {
		"event": {"type": "string"},
		"operator": {
			"type": "object",
			"minProperties": 1,
			"maxProperties": 1,
			"properties": {
				"and":		{"$ref": "#/definitions/and"},
				"or":		{"$ref": "#/definitions/or"},
				"if":		{"$ref": "#/definitions/if"},
				"iff":		{"$ref": "#/definitions/iff"},
				"not":		{"$ref": "#/definitions/not"},
				"globally":	{"$ref": "#/definitions/globally"},
				"future":	{"$ref": "#/definitions/future"},
				"next":		{"$ref": "#/definitions/next"},
				"until":	{"$ref": "#/definitions/until"},
				"release":	{"$ref": "#/definitions/release"},
				"event":	{"$ref": "#/definitions/event"}
			}
		},	
		"and": {
			"type": "array",
			"minItems": 2,
			"maxItems": 2,
			"items": {"$ref": "#/definitions/operator"}
		},
		"or": {
			"type": "array",
			"minItems": 2,
			"maxItems": 2,
			"items": {"$ref": "#/definitions/operator"}
		},
		"if": {
			"type": "array",
			"minItems": 2,
			"maxItems": 2,
			"items": {"$ref": "#/definitions/operator"}
		},
		"iff": {
			"type": "array",
			"minItems": 2,
			"maxItems": 2,
			"items": {"$ref": "#/definitions/operator"}
		},
		"not": {
			"type": "array",
			"minItems": 1,
			"maxItems": 1,
			"items": {"$ref": "#/definitions/operator"}
		},
		"globally": {
			"type": "array",
			"minItems": 1,
			"maxItems": 1,
			"items": {"$ref": "#/definitions/operator"}
		},
		"future": {
			"type": "array",
			"minItems": 1,
			"maxItems": 1,
			"items": {"$ref": "#/definitions/operator"}
		},
		"next": {
			"type": "array",
			"minItems": 1,
			"maxItems": 1,
			"items": {"$ref": "#/definitions/operator"}
		},
		"until": {
			"type": "array",
			"minItems": 2,
			"maxItems": 2,
			"items": {"$ref": "#/definitions/operator"}
		},
		"release": {
			"type": "array",
			"minItems": 2,
			"maxItems": 2,
			"items": {"$ref": "#/definitions/operator"}
		}
	},
	
	"type":	"object",
	"properties": {
		"name": {
			"description": "General name to describe requirement",
			"type": "string"
		},
		"LTL": {
			"description": "Specification of the requirement",
			"type": "object",
			"properties": {
				"natural language": {"type": "string"},
				"simplified LTL": {"type": "string"},
				"formal LTL": {
					"type": "array",
					"minItems": 1,
					"maxItems": 1,
					"items": [{"$ref": "#/definitions/operator"}]
				}
			},
			"required": ["formal LTL"],
			"minProperties": 1,
			"maxProperties": 3,
			"additionalProperties": false
		},
		"split": {
			"description": "Optional indication on where to split iterations",
			"type": "array",
			"items": {"type": "string"}
		},
		"where": {
			"description": "Relation between events in the requirement and events in the trace",
			"type": "array",
			"items": {
				"type": "object",
				"properties": {
					"event": {"type": "string"},
					"on": {"type": "string"},
					"on parameters": {
						"type": "array",
						"minItems": 1,
						"items": {"type": ["string", "null"]}
					},
					"off": {"type": "string"},
					"off parameters": {
						"type": "array",
						"minItems": 1,
						"items": {"type": ["string", "null"]}
					}
				},
				"required": ["event", "on", "off"],
				"uniqueItems": true,
				"minProperties": 3,
				"maxProperties": 5
			}
		}
	},
	"required": ["name", "LTL", "where"],
	"additionalProperties": false,
	"minProperties": 3,
	"maxProperties": 4
}