{
	"name": "Close gates",	
	
	"LTL": {
		"natural language": "After sensor a, close both barriers",
		"simplified LTL": "( (sensor_a || barrier_south_down) U barrier_north_down ) && ( (sensor_a || barrier_north_down) U barrier_south_down )",
		"formal LTL": [
			{"and": [
				{"until": [
					{"or": [
						{"event": "sensor a"},
						{"event": "barrier south down"}
					]},
					{"event": "barrier north down"}
				]},
				{"until": [
					{"or": [
						{"event": "sensor a"},
						{"event": "barrier north down"}
					]},
					{"event": "barrier south down"}
				]}
			]}
		]
	},
	
	"split": ["loop"],
	
	"where": [
		{	"event": "loop",
			"on": "lttng_ust_loop",
			"on parameters": ["start",	null],
			"off": "lttng_ust_loop",
			"off parameters": ["end", null]
		},
		{	"event": "barrier north down",
			"on": "lttng_ust_barrier_move",
			"on parameters": ["north",	"down",	"start"],
			"off": "lttng_ust_barrier_move",
			"off parameters": ["north", "down", "finish"]
		},
		{	"event": "barrier south down",
			"on": "lttng_ust_barrier_move",
			"on parameters": ["south", "down", "start"],
			"off": "lttng_ust_barrier_move",
			"off parameters": ["south", "down", "finish"]
		},
		{	"event": "sensor a",
			"on": "lttng_ust_sensor",
			"on parameters": ["A", "train"],
			"off": "lttng_ust_sensor",
			"off parameters": ["A", "no train"]
		}
	]
}